…
### 1. Make a histogram of the total number of steps taken each day.

Determine the total steps taken each day:

```r
Total_Steps_per_Day <- df %>%
        filter(!is.na(steps)) %>%
        group_by(date) %>%
        summarize(Total_Steps = sum(steps)) %>%
        print
```

```
## # A tibble: 53 x 2
##    date       Total_Steps
##    <chr>            <int>
##  1 2012-10-02         126
##  2 2012-10-03       11352
##  3 2012-10-04       12116
##  4 2012-10-05       13294
##  5 2012-10-06       15420
##  6 2012-10-07       11015
##  7 2012-10-09       12811
##  8 2012-10-10        9900
##  9 2012-10-11       10304
## 10 2012-10-12       17382
## # ... with 43 more rows
```
…
## What is the agerage daily activity pattern?
### 1. Make a time series plot of the 5-minute interval and the average number of 
### steps taken, averaged across all days:


```r
Average_Steps_Interval <- df %>%
        filter(!is.na(steps)) %>%
        group_by(time) %>%
        summarize(Average_Steps = mean(steps)) %>%
        print
```

```
## # A tibble: 288 x 2
##    time  Average_Steps
##    <chr>         <dbl>
##  1 00:00        1.72  
##  2 00:05        0.340 
##  3 00:10        0.132 
##  4 00:15        0.151 
##  5 00:20        0.0755
##  6 00:25        2.09  
##  7 00:30        0.528 
##  8 00:35        0.868 
##  9 00:40        0     
## 10 00:45        1.47  
## # ... with 278 more rows
```
…
```r
Total_Steps_with_Subs <- df_with_Subs %>%
  group_by(date) %>%
  summarize(Total_Steps = sum(steps))%>%
  print
```

```
## # A tibble: 61 x 2
##    date       Total_Steps
##    <chr>            <dbl>
##  1 2012-10-01      10766.
##  2 2012-10-02        126 
##  3 2012-10-03      11352 
##  4 2012-10-04      12116 
##  5 2012-10-05      13294 
##  6 2012-10-06      15420 
##  7 2012-10-07      11015 
##  8 2012-10-08      10766.
##  9 2012-10-09      12811 
## 10 2012-10-10       9900 
## # ... with 51 more rows
```
…
